{
  "__inputs": [
    {
      "name": "DS_PROMETHEUS",
      "label": "Prometheus",
      "description": "",
      "type": "datasource",
      "pluginId": "prometheus",
      "pluginName": "Prometheus"
    }
  ],
  "__requires": [
    {
      "type": "grafana",
      "id": "grafana",
      "name": "Grafana",
      "version": "5.0.4"
    },
    {
      "type": "panel",
      "id": "graph",
      "name": "Graph",
      "version": "5.0.0"
    },
    {
      "type": "datasource",
      "id": "prometheus",
      "name": "Prometheus",
      "version": "5.0.0"
    }
  ],
  "annotations": {
    "list": [
      {
        "builtIn": 1,
        "datasource": "${DS_PROMETHEUS}",
        "enable": true,
        "hide": true,
        "iconColor": "rgba(0, 211, 255, 1)",
        "name": "Annotations & Alerts",
        "type": "dashboard"
      }
    ]
  },
  "description": "This is a modification of dashboard #1860 that uses a hostname field (provided by Prometheus) to identify hosts.",
  "editable": true,
  "gnetId": 6212,
  "graphTooltip": 0,
  "id": null,
  "iteration": 1528828193033,
  "links": [],
  "panels": [
    {
      "collapsed": false,
      "gridPos": {
        "h": 1,
        "w": 24,
        "x": 0,
        "y": 0
      },
      "id": 235,
      "panels": [],
      "repeat": null,
      "title": "Memory Detail Vmstat",
      "type": "row"
    },
    {
      "aliasColors": {},
      "bars": false,
      "dashLength": 10,
      "dashes": false,
      "datasource": "${DS_PROMETHEUS}",
      "fill": 2,
      "gridPos": {
        "h": 10,
        "w": 12,
        "x": 0,
        "y": 1
      },
      "id": 176,
      "legend": {
        "alignAsTable": true,
        "avg": true,
        "current": true,
        "max": true,
        "min": true,
        "rightSide": false,
        "show": true,
        "total": false,
        "values": true
      },
      "lines": true,
      "linewidth": 1,
      "links": [],
      "minSpan": 4,
      "nullPointMode": "null",
      "percentage": false,
      "pointradius": 5,
      "points": false,
      "renderer": "flot",
      "seriesOverrides": [
        {
          "alias": "/.*out/",
          "transform": "negative-Y"
        }
      ],
      "spaceLength": 10,
      "stack": false,
      "steppedLine": false,
      "targets": [
        {
          "expr": "irate(node_vmstat_pgpgin{node=~\"$node\",job=~\"$job\"}[5m])",
          "format": "time_series",
          "intervalFactor": 2,
          "legendFormat": "Pagesin - Page in operations",
          "refId": "A",
          "step": 1800
        },
        {
          "expr": "irate(node_vmstat_pgpgout{node=~\"$node\",job=~\"$job\"}[5m])",
          "format": "time_series",
          "intervalFactor": 2,
          "legendFormat": "Pagesout - Page out operations",
          "refId": "B",
          "step": 1800
        }
      ],
      "thresholds": [],
      "timeFrom": null,
      "timeShift": null,
      "title": "Memory Pages In / Out",
      "tooltip": {
        "shared": true,
        "sort": 0,
        "value_type": "individual"
      },
      "type": "graph",
      "xaxis": {
        "buckets": null,
        "mode": "time",
        "name": null,
        "show": true,
        "values": []
      },
      "yaxes": [
        {
          "format": "short",
          "label": "Pages out (-) / in (+)",
          "logBase": 1,
          "max": null,
          "min": null,
          "show": true
        },
        {
          "format": "short",
          "label": null,
          "logBase": 1,
          "max": null,
          "min": null,
          "show": false
        }
      ]
    },
    {
      "aliasColors": {},
      "bars": false,
      "dashLength": 10,
      "dashes": false,
      "datasource": "${DS_PROMETHEUS}",
      "fill": 2,
      "gridPos": {
        "h": 10,
        "w": 12,
        "x": 12,
        "y": 1
      },
      "id": 22,
      "legend": {
        "alignAsTable": true,
        "avg": true,
        "current": true,
        "max": true,
        "min": true,
        "rightSide": false,
        "show": true,
        "total": false,
        "values": true
      },
      "lines": true,
      "linewidth": 1,
      "links": [],
      "minSpan": 4,
      "nullPointMode": "null",
      "percentage": false,
      "pointradius": 5,
      "points": false,
      "renderer": "flot",
      "seriesOverrides": [
        {
          "alias": "/.*out/",
          "transform": "negative-Y"
        }
      ],
      "spaceLength": 10,
      "stack": false,
      "steppedLine": false,
      "targets": [
        {
          "expr": "irate(node_vmstat_pswpin{node=~\"$node\",job=~\"$job\"}[5m])",
          "format": "time_series",
          "intervalFactor": 2,
          "legendFormat": "Pswpin - Pages swapped in",
          "refId": "A",
          "step": 1800
        },
        {
          "expr": "irate(node_vmstat_pswpout{node=~\"$node\",job=~\"$job\"}[5m])",
          "format": "time_series",
          "intervalFactor": 2,
          "legendFormat": "Pswpout - Pages swapped out",
          "refId": "B",
          "step": 1800
        }
      ],
      "thresholds": [],
      "timeFrom": null,
      "timeShift": null,
      "title": "Memory Pages Swap In / Out",
      "tooltip": {
        "shared": true,
        "sort": 0,
        "value_type": "individual"
      },
      "type": "graph",
      "xaxis": {
        "buckets": null,
        "mode": "time",
        "name": null,
        "show": true,
        "values": []
      },
      "yaxes": [
        {
          "format": "short",
          "label": "Pages out (-) / in (+)",
          "logBase": 1,
          "max": null,
          "min": null,
          "show": true
        },
        {
          "format": "short",
          "label": null,
          "logBase": 1,
          "max": null,
          "min": null,
          "show": false
        }
      ]
    },
    {
      "aliasColors": {
        "Apps": "#629E51",
        "Buffers": "#614D93",
        "Cache": "#6D1F62",
        "Cached": "#511749",
        "Committed": "#508642",
        "Free": "#0A437C",
        "Harware Corrupted - Amount of RAM that the kernel identified as corrupted / not working": "#CFFAFF",
        "Inactive": "#584477",
        "PageTables": "#0A50A1",
        "Page_Tables": "#0A50A1",
        "RAM_Free": "#E0F9D7",
        "Slab": "#806EB7",
        "Slab_Cache": "#E0752D",
        "Swap": "#BF1B00",
        "Swap_Cache": "#C15C17",
        "Swap_Free": "#2F575E",
        "Unused": "#EAB839"
      },
      "bars": false,
      "dashLength": 10,
      "dashes": false,
      "datasource": "${DS_PROMETHEUS}",
      "decimals": 2,
      "fill": 2,
      "gridPos": {
        "h": 10,
        "w": 12,
        "x": 0,
        "y": 11
      },
      "id": 197,
      "legend": {
        "alignAsTable": true,
        "avg": true,
        "current": true,
        "max": true,
        "min": true,
        "rightSide": false,
        "show": true,
        "sideWidth": 350,
        "total": false,
        "values": true
      },
      "lines": true,
      "linewidth": 1,
      "links": [],
      "minSpan": 4,
      "nullPointMode": "null",
      "percentage": false,
      "pointradius": 5,
      "points": false,
      "renderer": "flot",
      "seriesOverrides": [],
      "spaceLength": 10,
      "stack": false,
      "steppedLine": false,
      "targets": [
        {
          "expr": "irate(node_vmstat_pgdeactivate{node=~\"$node\",job=~\"$job\"}[5m])",
          "format": "time_series",
          "intervalFactor": 2,
          "legendFormat": "Pgdeactivate - Pages moved from active to inactive",
          "refId": "B",
          "step": 1800
        },
        {
          "expr": "irate(node_vmstat_pgfree{node=~\"$node\",job=~\"$job\"}[5m])",
          "format": "time_series",
          "intervalFactor": 2,
          "legendFormat": "Pgfree - Page free operations",
          "refId": "D",
          "step": 1800
        },
        {
          "expr": "irate(node_vmstat_pgactivate{node=~\"$node\",job=~\"$job\"}[5m])",
          "format": "time_series",
          "intervalFactor": 2,
          "legendFormat": "Pgactivate - Pages moved from inactive to active",
          "refId": "A",
          "step": 1800
        }
      ],
      "thresholds": [],
      "timeFrom": null,
      "timeShift": null,
      "title": "Memory Page Operations",
      "tooltip": {
        "shared": true,
        "sort": 0,
        "value_type": "cumulative"
      },
      "type": "graph",
      "xaxis": {
        "buckets": null,
        "mode": "time",
        "name": null,
        "show": true,
        "values": []
      },
      "yaxes": [
        {
          "format": "short",
          "label": "Pages",
          "logBase": 1,
          "max": null,
          "min": "0",
          "show": true
        },
        {
          "format": "short",
          "label": null,
          "logBase": 1,
          "max": null,
          "min": null,
          "show": false
        }
      ]
    },
    {
      "aliasColors": {
        "Apps": "#629E51",
        "Buffers": "#614D93",
        "Cache": "#6D1F62",
        "Cached": "#511749",
        "Committed": "#508642",
        "Free": "#0A437C",
        "Harware Corrupted - Amount of RAM that the kernel identified as corrupted / not working": "#CFFAFF",
        "Inactive": "#584477",
        "PageTables": "#0A50A1",
        "Page_Tables": "#0A50A1",
        "RAM_Free": "#E0F9D7",
        "Slab": "#806EB7",
        "Slab_Cache": "#E0752D",
        "Swap": "#BF1B00",
        "Swap_Cache": "#C15C17",
        "Swap_Free": "#2F575E",
        "Unused": "#EAB839"
      },
      "bars": false,
      "dashLength": 10,
      "dashes": false,
      "datasource": "${DS_PROMETHEUS}",
      "decimals": 2,
      "fill": 2,
      "gridPos": {
        "h": 10,
        "w": 12,
        "x": 12,
        "y": 11
      },
      "id": 175,
      "legend": {
        "alignAsTable": true,
        "avg": true,
        "current": true,
        "max": true,
        "min": true,
        "rightSide": false,
        "show": true,
        "sideWidth": 350,
        "total": false,
        "values": true
      },
      "lines": true,
      "linewidth": 1,
      "links": [],
      "minSpan": 4,
      "nullPointMode": "null",
      "percentage": false,
      "pointradius": 5,
      "points": false,
      "renderer": "flot",
      "seriesOverrides": [
        {
          "alias": "Pgfault - Page major and minor fault operations",
          "fill": 0,
          "stack": false
        }
      ],
      "spaceLength": 10,
      "stack": true,
      "steppedLine": false,
      "targets": [
        {
          "expr": "irate(node_vmstat_pgfault{node=~\"$node\",job=~\"$job\"}[5m])",
          "format": "time_series",
          "intervalFactor": 2,
          "legendFormat": "Pgfault - Page major and minor fault operations",
          "refId": "C",
          "step": 1800
        },
        {
          "expr": "irate(node_vmstat_pgmajfault{node=~\"$node\",job=~\"$job\"}[5m])",
          "format": "time_series",
          "intervalFactor": 2,
          "legendFormat": "Pgmajfault - Major page fault operations",
          "refId": "F",
          "step": 1800
        },
        {
          "expr": "irate(node_vmstat_pgfault{node=~\"$node\",job=~\"$job\"}[5m])  - irate(node_vmstat_pgmajfault{node=~\"$node\",job=~\"$job\"}[5m])",
          "format": "time_series",
          "intervalFactor": 2,
          "legendFormat": "Pgminfault - Minnor page fault operations",
          "refId": "A",
          "step": 1800
        }
      ],
      "thresholds": [],
      "timeFrom": null,
      "timeShift": null,
      "title": "Memory Page Faults",
      "tooltip": {
        "shared": true,
        "sort": 0,
        "value_type": "cumulative"
      },
      "type": "graph",
      "xaxis": {
        "buckets": null,
        "mode": "time",
        "name": null,
        "show": true,
        "values": []
      },
      "yaxes": [
        {
          "format": "short",
          "label": "Faults",
          "logBase": 1,
          "max": null,
          "min": "0",
          "show": true
        },
        {
          "format": "short",
          "label": null,
          "logBase": 1,
          "max": null,
          "min": null,
          "show": false
        }
      ]
    }
  ],
  "refresh": false,
  "schemaVersion": 16,
  "style": "dark",
  "tags": [],
  "templating": {
    "list": [
      {
        "allValue": null,
        "current": {},
        "datasource": "${DS_PROMETHEUS}",
        "hide": 0,
        "includeAll": false,
        "label": "Job",
        "multi": false,
        "name": "job",
        "options": [],
        "query": "label_values(node_boot_time, job)",
        "refresh": 1,
        "regex": "",
        "sort": 1,
        "tagValuesQuery": "",
        "tags": [],
        "tagsQuery": "",
        "type": "query",
        "useTags": false
      },
      {
        "allValue": null,
        "current": {},
        "datasource": "${DS_PROMETHEUS}",
        "hide": 0,
        "includeAll": true,
        "label": "Node:",
        "multi": true,
        "name": "node",
        "options": [],
        "query": "label_values(node_boot_time{job=~\"$job\"}, node)",
        "refresh": 1,
        "regex": "",
        "sort": 1,
        "tagValuesQuery": "",
        "tags": [],
        "tagsQuery": "",
        "type": "query",
        "useTags": false
      }
    ]
  },
  "time": {
    "from": "now-5m",
    "to": "now"
  },
  "timepicker": {
    "refresh_intervals": [
      "5s",
      "10s",
      "30s",
      "1m",
      "5m",
      "15m",
      "30m",
      "1h",
      "2h",
      "1d"
    ],
    "time_options": [
      "5m",
      "15m",
      "1h",
      "6h",
      "12h",
      "24h",
      "2d",
      "7d",
      "30d"
    ]
  },
  "timezone": "browser",
  "title": "Memory Management 5",
  "uid": "Vi8t9lImz",
  "version": 2
}